Categories:Science & Education,Navigation
License:MIT
Web Site:
Source Code:https://github.com/arkon/CDFLabs
Issue Tracker:https://github.com/arkon/CDFLabs/issues

Auto Name:CDF Labs
Summary:Check availibilty of computers at CDFLabs
Description:
Allows Computer Science students at University of Toronto St George to quickly
check how many machines are available in the various CDF computer labs in Bahen
and on NX.

Older versions are GPLv3 licensed, staring with 3.0.0 licensing switched to MIT.
.

Repo Type:git
Repo:https://github.com/arkon/CDFLabs

Build:1.1,11
    commit=5899be13b2480ff05bfb850c4156cb1ab374df76
    subdir=app
    gradle=yes
    rm=app/libs/*jar
    prebuild=sed -i -e '/support-v4/acompile "org.jsoup:jsoup:1.7.3"' build.gradle

Build:2.0,14
    commit=6124e55ebce37c105efa324845cd7b89770bc074
    subdir=app
    gradle=yes
    rm=app/libs/*jar

Build:2.0.1,15
    commit=715f7c73d60419bc019c8351dcf5d809c7e058d9
    subdir=app
    gradle=yes
    rm=app/libs/*jar

Build:2.0.2,16
    commit=36379b31d8b5f892fff67cddad07207537052299
    subdir=app
    gradle=yes
    rm=app/libs/*jar

Build:2.1,17
    commit=c4fb7d6db73cf5c8e2d3dbe0a7cefcc6581871ad
    subdir=app
    gradle=yes
    rm=app/libs/*jar

Build:2.2.1,19
    commit=a62cfcb7971057ac9cd38b050831c9eaa03058b3
    subdir=app
    gradle=yes
    rm=app/libs/*jar

Build:2.2.2,20
    commit=12ed877698bf862e6103c550c626c4c19fd209d7
    subdir=app
    gradle=yes
    rm=app/libs/*jar

Build:2.2.3,21
    commit=48ef9e55b910dfd06ab82b4024ffe41eeacba220
    subdir=app
    gradle=yes
    rm=app/libs/*jar

Build:2.3.0,22
    commit=89588ac36b3886f3660e6900fb643cf940d0dc89
    subdir=app
    gradle=yes

# Starting with 3.0.0 the app is MIT licensed, prior to 3.0.0 GPLv3
Build:3.0.0,23
    commit=d7b547a9f5052d6e73cb827e6a451b716e62db8f
    subdir=app
    gradle=yes

Auto Update Mode:None
Update Check Mode:RepoManifest
Current Version:3.0.0
Current Version Code:23
